<svg xmlns="http://www.w3.org/2000/svg" width="15.184" height="22" viewBox="0 0 15.184 22">
  <g id="touch-screen" transform="translate(-73)">
    <g id="Groupe_735" data-name="Groupe 735" transform="translate(75.809)">
      <g id="Groupe_734" data-name="Groupe 734">
        <path id="Tracé_958" data-name="Tracé 958" d="M162.313,0h-8.25A2.062,2.062,0,0,0,152,2.063V5.5h1.375V4.125H163V16.5h-9.625V13.75H152v6.188A2.062,2.062,0,0,0,154.063,22h8.25a2.062,2.062,0,0,0,2.062-2.062V2.063A2.062,2.062,0,0,0,162.313,0ZM163,19.938a.687.687,0,0,1-.687.688h-8.25a.687.687,0,0,1-.687-.687V17.875H163ZM163,2.75h-9.625V2.063a.687.687,0,0,1,.688-.687h8.25a.687.687,0,0,1,.687.688Z" transform="translate(-152)" fill="#afafaf"/>
      </g>
    </g>
    <g id="Groupe_737" data-name="Groupe 737" transform="translate(80.825 19.003)">
      <g id="Groupe_736" data-name="Groupe 736" transform="translate(0 0)">
        <rect id="Rectangle_813" data-name="Rectangle 813" width="1" height="1" transform="translate(0.175 -0.003)" fill="#afafaf"/>
      </g>
    </g>
    <g id="Groupe_739" data-name="Groupe 739" transform="translate(75.81 6.875)">
      <g id="Groupe_738" data-name="Groupe 738">
        <path id="Tracé_959" data-name="Tracé 959" d="M160.254,160.632a.678.678,0,0,0-.014-.128c0-.017-.016-.03-.021-.046a.64.64,0,0,0-.04-.085.65.65,0,0,0-.087-.129.784.784,0,0,0-.062-.069.663.663,0,0,0-.138-.091.649.649,0,0,0-.069-.039.687.687,0,0,0-.247-.046H152.7a.687.687,0,0,0-.246.049.645.645,0,0,0-.069.038.665.665,0,0,0-.137.091.789.789,0,0,0-.062.069.651.651,0,0,0-.087.129.587.587,0,0,0-.039.085c-.006.017-.017.03-.022.047a.68.68,0,0,0-.014.128c0,.019-.011.036-.011.056v4.125a.688.688,0,0,0,.687.684h6.875a.687.687,0,0,0,.688-.688v-4.125C160.265,160.668,160.256,160.651,160.254,160.632Zm-3.158.743-.956.573-.956-.573Zm1.794,2.75h-5.5V161.9l2.4,1.438a.688.688,0,0,0,.708,0l2.4-1.438Z" transform="translate(-152.016 -160)" fill="#afafaf"/>
      </g>
    </g>
    <g id="Groupe_741" data-name="Groupe 741" transform="translate(74.118 7.825)">
      <g id="Groupe_740" data-name="Groupe 740" transform="translate(0 0)">
        <rect id="Rectangle_814" data-name="Rectangle 814" width="1" height="1" transform="translate(-0.118 0.175)" fill="#afafaf"/>
      </g>
    </g>
    <g id="Groupe_743" data-name="Groupe 743" transform="translate(73 8.943)">
      <g id="Groupe_742" data-name="Groupe 742" transform="translate(0 0)">
        <rect id="Rectangle_815" data-name="Rectangle 815" width="2" height="2" transform="translate(0 0.057)" fill="#afafaf"/>
      </g>
    </g>
  </g>
</svg>
